-- Merging decision tree log ---
manifest
ADDED from C:\Users\SHAZZ-PC\Desktop\Rates\app\src\main\AndroidManifest.xml:1:1-21:12
INJECTED from C:\Users\SHAZZ-PC\Desktop\Rates\app\src\main\AndroidManifest.xml:1:1-21:12
INJECTED from C:\Users\SHAZZ-PC\Desktop\Rates\app\src\main\AndroidManifest.xml:1:1-21:12
INJECTED from C:\Users\SHAZZ-PC\Desktop\Rates\app\src\main\AndroidManifest.xml:1:1-21:12
MERGED from [androidx.appcompat:appcompat:1.1.0] C:\Users\SHAZZ-PC\.gradle\caches\transforms-2\files-2.1\f8e40aff858c5d15471a3edb6d91c239\AndroidManifest.xml:17:1-24:12
MERGED from [androidx.constraintlayout:constraintlayout:1.1.3] C:\Users\SHAZZ-PC\.gradle\caches\transforms-2\files-2.1\27d5104d99bc2544cc5cd70e36dd8e58\AndroidManifest.xml:2:1-11:12
MERGED from [androidx.lifecycle:lifecycle-extensions:2.2.0] C:\Users\SHAZZ-PC\.gradle\caches\transforms-2\files-2.1\59cb74f39393a6dc995c48565ef00608\AndroidManifest.xml:17:1-27:12
MERGED from [io.reactivex.rxjava2:rxandroid:2.1.1] C:\Users\SHAZZ-PC\.gradle\caches\transforms-2\files-2.1\c163c0dfeaec3d5f210d3c820eb8c5d8\AndroidManifest.xml:15:1-20:12
MERGED from [androidx.recyclerview:recyclerview:1.1.0] C:\Users\SHAZZ-PC\.gradle\caches\transforms-2\files-2.1\70b3b7d78a2a343b14662b338d4d1c2f\AndroidManifest.xml:17:1-24:12
MERGED from [com.squareup.picasso:picasso:2.71828] C:\Users\SHAZZ-PC\.gradle\caches\transforms-2\files-2.1\a516092396ab68558b2f81c3baadd2e3\AndroidManifest.xml:2:1-14:12
MERGED from [androidx.appcompat:appcompat-resources:1.1.0] C:\Users\SHAZZ-PC\.gradle\caches\transforms-2\files-2.1\c4dbc6620ed2350b0194580688d12e6b\AndroidManifest.xml:17:1-24:12
MERGED from [androidx.drawerlayout:drawerlayout:1.0.0] C:\Users\SHAZZ-PC\.gradle\caches\transforms-2\files-2.1\035d45a360ef87c4d4e438de01b49a53\AndroidManifest.xml:17:1-22:12
MERGED from [androidx.fragment:fragment:1.2.0] C:\Users\SHAZZ-PC\.gradle\caches\transforms-2\files-2.1\56955d8802e640545f3c2335438488d7\AndroidManifest.xml:17:1-24:12
MERGED from [androidx.viewpager:viewpager:1.0.0] C:\Users\SHAZZ-PC\.gradle\caches\transforms-2\files-2.1\17e293a55f6ee2f8739cec137bf7d1b7\AndroidManifest.xml:17:1-22:12
MERGED from [androidx.customview:customview:1.0.0] C:\Users\SHAZZ-PC\.gradle\caches\transforms-2\files-2.1\ecba5fae40afe000a20878fa04cc9402\AndroidManifest.xml:17:1-22:12
MERGED from [androidx.vectordrawable:vectordrawable-animated:1.1.0] C:\Users\SHAZZ-PC\.gradle\caches\transforms-2\files-2.1\99321da1d91b41bf26d82e7f4f96c39e\AndroidManifest.xml:17:1-24:12
MERGED from [androidx.vectordrawable:vectordrawable:1.1.0] C:\Users\SHAZZ-PC\.gradle\caches\transforms-2\files-2.1\fc9d41ac2b7dae40b5812773ac02021c\AndroidManifest.xml:17:1-24:12
MERGED from [androidx.loader:loader:1.0.0] C:\Users\SHAZZ-PC\.gradle\caches\transforms-2\files-2.1\ba3ea9bb5facc733fae2c598a0a9ead7\AndroidManifest.xml:17:1-22:12
MERGED from [androidx.activity:activity:1.1.0] C:\Users\SHAZZ-PC\.gradle\caches\transforms-2\files-2.1\d64aa8e2b6aeae0304249bbb880bb801\AndroidManifest.xml:17:1-24:12
MERGED from [androidx.core:core:1.1.0] C:\Users\SHAZZ-PC\.gradle\caches\transforms-2\files-2.1\e28d971f81239b50feaca69d7ce265ac\AndroidManifest.xml:17:1-26:12
MERGED from [androidx.cursoradapter:cursoradapter:1.0.0] C:\Users\SHAZZ-PC\.gradle\caches\transforms-2\files-2.1\117fb22d4963398d35e737dd9473734a\AndroidManifest.xml:17:1-22:12
MERGED from [androidx.lifecycle:lifecycle-process:2.2.0] C:\Users\SHAZZ-PC\.gradle\caches\transforms-2\files-2.1\3482478afc4167532b8192529c1da171\AndroidManifest.xml:17:1-32:12
MERGED from [androidx.lifecycle:lifecycle-service:2.2.0] C:\Users\SHAZZ-PC\.gradle\caches\transforms-2\files-2.1\365773568fbd51f1de6101163e807133\AndroidManifest.xml:17:1-24:12
MERGED from [androidx.lifecycle:lifecycle-runtime:2.2.0] C:\Users\SHAZZ-PC\.gradle\caches\transforms-2\files-2.1\05015eec7d08fa46d753e7ab2fe3604e\AndroidManifest.xml:17:1-24:12
MERGED from [androidx.lifecycle:lifecycle-livedata:2.2.0] C:\Users\SHAZZ-PC\.gradle\caches\transforms-2\files-2.1\466a87c158cc54d5b5b3ed4b96929134\AndroidManifest.xml:17:1-24:12
MERGED from [androidx.lifecycle:lifecycle-viewmodel-savedstate:1.0.0] C:\Users\SHAZZ-PC\.gradle\caches\transforms-2\files-2.1\c7272080e7ba62a31cea3b58bea3ddaf\AndroidManifest.xml:17:1-24:12
MERGED from [androidx.lifecycle:lifecycle-livedata-core:2.2.0] C:\Users\SHAZZ-PC\.gradle\caches\transforms-2\files-2.1\783e07400e59d29704e0924c9d138256\AndroidManifest.xml:17:1-24:12
MERGED from [androidx.arch.core:core-runtime:2.1.0] C:\Users\SHAZZ-PC\.gradle\caches\transforms-2\files-2.1\a6f6e7c5e32eca7566e1711781d1795d\AndroidManifest.xml:17:1-24:12
MERGED from [androidx.savedstate:savedstate:1.0.0] C:\Users\SHAZZ-PC\.gradle\caches\transforms-2\files-2.1\97d1a623f7e795faabf8faeb30284b35\AndroidManifest.xml:17:1-24:12
MERGED from [androidx.lifecycle:lifecycle-viewmodel:2.2.0] C:\Users\SHAZZ-PC\.gradle\caches\transforms-2\files-2.1\3799a4688fa1433efc33881ad658e43a\AndroidManifest.xml:17:1-24:12
MERGED from [androidx.exifinterface:exifinterface:1.0.0] C:\Users\SHAZZ-PC\.gradle\caches\transforms-2\files-2.1\26f2ca53176a3e74e60ac67d8c6eac11\AndroidManifest.xml:17:1-22:12
MERGED from [androidx.versionedparcelable:versionedparcelable:1.1.0] C:\Users\SHAZZ-PC\.gradle\caches\transforms-2\files-2.1\4869d28996df6c2caf106da4927dae8f\AndroidManifest.xml:17:1-27:12
MERGED from [androidx.interpolator:interpolator:1.0.0] C:\Users\SHAZZ-PC\.gradle\caches\transforms-2\files-2.1\149edcb0f1a39db21ef9033e6412ff2d\AndroidManifest.xml:17:1-22:12
INJECTED from C:\Users\SHAZZ-PC\Desktop\Rates\app\src\main\AndroidManifest.xml:1:1-21:12
INJECTED from C:\Users\SHAZZ-PC\Desktop\Rates\app\src\main\AndroidManifest.xml:1:1-21:12
INJECTED from C:\Users\SHAZZ-PC\Desktop\Rates\app\src\main\AndroidManifest.xml:1:1-21:12
	package
		ADDED from C:\Users\SHAZZ-PC\Desktop\Rates\app\src\main\AndroidManifest.xml:2:5-45
		INJECTED from C:\Users\SHAZZ-PC\Desktop\Rates\app\src\main\AndroidManifest.xml
		INJECTED from C:\Users\SHAZZ-PC\Desktop\Rates\app\src\main\AndroidManifest.xml
	android:versionName
		INJECTED from C:\Users\SHAZZ-PC\Desktop\Rates\app\src\main\AndroidManifest.xml
		ADDED from C:\Users\SHAZZ-PC\Desktop\Rates\app\src\main\AndroidManifest.xml:1:1-21:12
		INJECTED from C:\Users\SHAZZ-PC\Desktop\Rates\app\src\main\AndroidManifest.xml
	android:versionCode
		INJECTED from C:\Users\SHAZZ-PC\Desktop\Rates\app\src\main\AndroidManifest.xml
		ADDED from C:\Users\SHAZZ-PC\Desktop\Rates\app\src\main\AndroidManifest.xml:1:1-21:12
		INJECTED from C:\Users\SHAZZ-PC\Desktop\Rates\app\src\main\AndroidManifest.xml
	xmlns:android
		ADDED from C:\Users\SHAZZ-PC\Desktop\Rates\app\src\main\AndroidManifest.xml:1:11-69
uses-permission#android.permission.INTERNET
ADDED from C:\Users\SHAZZ-PC\Desktop\Rates\app\src\main\AndroidManifest.xml:4:5-67
	android:name
		ADDED from C:\Users\SHAZZ-PC\Desktop\Rates\app\src\main\AndroidManifest.xml:4:22-64
application
ADDED from C:\Users\SHAZZ-PC\Desktop\Rates\app\src\main\AndroidManifest.xml:5:5-19:19
MERGED from [androidx.constraintlayout:constraintlayout:1.1.3] C:\Users\SHAZZ-PC\.gradle\caches\transforms-2\files-2.1\27d5104d99bc2544cc5cd70e36dd8e58\AndroidManifest.xml:9:5-20
MERGED from [androidx.constraintlayout:constraintlayout:1.1.3] C:\Users\SHAZZ-PC\.gradle\caches\transforms-2\files-2.1\27d5104d99bc2544cc5cd70e36dd8e58\AndroidManifest.xml:9:5-20
MERGED from [androidx.lifecycle:lifecycle-extensions:2.2.0] C:\Users\SHAZZ-PC\.gradle\caches\transforms-2\files-2.1\59cb74f39393a6dc995c48565ef00608\AndroidManifest.xml:24:5-25:19
MERGED from [androidx.lifecycle:lifecycle-extensions:2.2.0] C:\Users\SHAZZ-PC\.gradle\caches\transforms-2\files-2.1\59cb74f39393a6dc995c48565ef00608\AndroidManifest.xml:24:5-25:19
MERGED from [com.squareup.picasso:picasso:2.71828] C:\Users\SHAZZ-PC\.gradle\caches\transforms-2\files-2.1\a516092396ab68558b2f81c3baadd2e3\AndroidManifest.xml:7:5-12:19
MERGED from [com.squareup.picasso:picasso:2.71828] C:\Users\SHAZZ-PC\.gradle\caches\transforms-2\files-2.1\a516092396ab68558b2f81c3baadd2e3\AndroidManifest.xml:7:5-12:19
MERGED from [androidx.core:core:1.1.0] C:\Users\SHAZZ-PC\.gradle\caches\transforms-2\files-2.1\e28d971f81239b50feaca69d7ce265ac\AndroidManifest.xml:24:5-89
MERGED from [androidx.core:core:1.1.0] C:\Users\SHAZZ-PC\.gradle\caches\transforms-2\files-2.1\e28d971f81239b50feaca69d7ce265ac\AndroidManifest.xml:24:5-89
MERGED from [androidx.lifecycle:lifecycle-process:2.2.0] C:\Users\SHAZZ-PC\.gradle\caches\transforms-2\files-2.1\3482478afc4167532b8192529c1da171\AndroidManifest.xml:24:5-30:19
MERGED from [androidx.lifecycle:lifecycle-process:2.2.0] C:\Users\SHAZZ-PC\.gradle\caches\transforms-2\files-2.1\3482478afc4167532b8192529c1da171\AndroidManifest.xml:24:5-30:19
MERGED from [androidx.versionedparcelable:versionedparcelable:1.1.0] C:\Users\SHAZZ-PC\.gradle\caches\transforms-2\files-2.1\4869d28996df6c2caf106da4927dae8f\AndroidManifest.xml:24:5-25:19
MERGED from [androidx.versionedparcelable:versionedparcelable:1.1.0] C:\Users\SHAZZ-PC\.gradle\caches\transforms-2\files-2.1\4869d28996df6c2caf106da4927dae8f\AndroidManifest.xml:24:5-25:19
	android:appComponentFactory
		ADDED from [androidx.core:core:1.1.0] C:\Users\SHAZZ-PC\.gradle\caches\transforms-2\files-2.1\e28d971f81239b50feaca69d7ce265ac\AndroidManifest.xml:24:18-86
	android:supportsRtl
		ADDED from C:\Users\SHAZZ-PC\Desktop\Rates\app\src\main\AndroidManifest.xml:10:9-35
	android:label
		ADDED from C:\Users\SHAZZ-PC\Desktop\Rates\app\src\main\AndroidManifest.xml:8:9-41
	android:roundIcon
		ADDED from C:\Users\SHAZZ-PC\Desktop\Rates\app\src\main\AndroidManifest.xml:9:9-54
	android:icon
		ADDED from C:\Users\SHAZZ-PC\Desktop\Rates\app\src\main\AndroidManifest.xml:7:9-43
	android:allowBackup
		ADDED from C:\Users\SHAZZ-PC\Desktop\Rates\app\src\main\AndroidManifest.xml:6:9-35
	android:theme
		ADDED from C:\Users\SHAZZ-PC\Desktop\Rates\app\src\main\AndroidManifest.xml:11:9-40
activity#com.shahzaib.currencyconverter.ui.CurrencyActivity
ADDED from C:\Users\SHAZZ-PC\Desktop\Rates\app\src\main\AndroidManifest.xml:12:9-18:20
	android:name
		ADDED from C:\Users\SHAZZ-PC\Desktop\Rates\app\src\main\AndroidManifest.xml:12:19-84
intent-filter#action:name:android.intent.action.MAIN+category:name:android.intent.category.LAUNCHER
ADDED from C:\Users\SHAZZ-PC\Desktop\Rates\app\src\main\AndroidManifest.xml:13:13-17:29
action#android.intent.action.MAIN
ADDED from C:\Users\SHAZZ-PC\Desktop\Rates\app\src\main\AndroidManifest.xml:14:17-69
	android:name
		ADDED from C:\Users\SHAZZ-PC\Desktop\Rates\app\src\main\AndroidManifest.xml:14:25-66
category#android.intent.category.LAUNCHER
ADDED from C:\Users\SHAZZ-PC\Desktop\Rates\app\src\main\AndroidManifest.xml:16:17-77
	android:name
		ADDED from C:\Users\SHAZZ-PC\Desktop\Rates\app\src\main\AndroidManifest.xml:16:27-74
uses-sdk
INJECTED from C:\Users\SHAZZ-PC\Desktop\Rates\app\src\main\AndroidManifest.xml reason: use-sdk injection requested
INJECTED from C:\Users\SHAZZ-PC\Desktop\Rates\app\src\main\AndroidManifest.xml
INJECTED from C:\Users\SHAZZ-PC\Desktop\Rates\app\src\main\AndroidManifest.xml
MERGED from [androidx.appcompat:appcompat:1.1.0] C:\Users\SHAZZ-PC\.gradle\caches\transforms-2\files-2.1\f8e40aff858c5d15471a3edb6d91c239\AndroidManifest.xml:20:5-22:41
MERGED from [androidx.appcompat:appcompat:1.1.0] C:\Users\SHAZZ-PC\.gradle\caches\transforms-2\files-2.1\f8e40aff858c5d15471a3edb6d91c239\AndroidManifest.xml:20:5-22:41
MERGED from [androidx.constraintlayout:constraintlayout:1.1.3] C:\Users\SHAZZ-PC\.gradle\caches\transforms-2\files-2.1\27d5104d99bc2544cc5cd70e36dd8e58\AndroidManifest.xml:5:5-7:41
MERGED from [androidx.constraintlayout:constraintlayout:1.1.3] C:\Users\SHAZZ-PC\.gradle\caches\transforms-2\files-2.1\27d5104d99bc2544cc5cd70e36dd8e58\AndroidManifest.xml:5:5-7:41
MERGED from [androidx.lifecycle:lifecycle-extensions:2.2.0] C:\Users\SHAZZ-PC\.gradle\caches\transforms-2\files-2.1\59cb74f39393a6dc995c48565ef00608\AndroidManifest.xml:20:5-22:41
MERGED from [androidx.lifecycle:lifecycle-extensions:2.2.0] C:\Users\SHAZZ-PC\.gradle\caches\transforms-2\files-2.1\59cb74f39393a6dc995c48565ef00608\AndroidManifest.xml:20:5-22:41
MERGED from [io.reactivex.rxjava2:rxandroid:2.1.1] C:\Users\SHAZZ-PC\.gradle\caches\transforms-2\files-2.1\c163c0dfeaec3d5f210d3c820eb8c5d8\AndroidManifest.xml:18:5-43
MERGED from [io.reactivex.rxjava2:rxandroid:2.1.1] C:\Users\SHAZZ-PC\.gradle\caches\transforms-2\files-2.1\c163c0dfeaec3d5f210d3c820eb8c5d8\AndroidManifest.xml:18:5-43
MERGED from [androidx.recyclerview:recyclerview:1.1.0] C:\Users\SHAZZ-PC\.gradle\caches\transforms-2\files-2.1\70b3b7d78a2a343b14662b338d4d1c2f\AndroidManifest.xml:20:5-22:41
MERGED from [androidx.recyclerview:recyclerview:1.1.0] C:\Users\SHAZZ-PC\.gradle\caches\transforms-2\files-2.1\70b3b7d78a2a343b14662b338d4d1c2f\AndroidManifest.xml:20:5-22:41
MERGED from [com.squareup.picasso:picasso:2.71828] C:\Users\SHAZZ-PC\.gradle\caches\transforms-2\files-2.1\a516092396ab68558b2f81c3baadd2e3\AndroidManifest.xml:5:5-44
MERGED from [com.squareup.picasso:picasso:2.71828] C:\Users\SHAZZ-PC\.gradle\caches\transforms-2\files-2.1\a516092396ab68558b2f81c3baadd2e3\AndroidManifest.xml:5:5-44
MERGED from [androidx.appcompat:appcompat-resources:1.1.0] C:\Users\SHAZZ-PC\.gradle\caches\transforms-2\files-2.1\c4dbc6620ed2350b0194580688d12e6b\AndroidManifest.xml:20:5-22:41
MERGED from [androidx.appcompat:appcompat-resources:1.1.0] C:\Users\SHAZZ-PC\.gradle\caches\transforms-2\files-2.1\c4dbc6620ed2350b0194580688d12e6b\AndroidManifest.xml:20:5-22:41
MERGED from [androidx.drawerlayout:drawerlayout:1.0.0] C:\Users\SHAZZ-PC\.gradle\caches\transforms-2\files-2.1\035d45a360ef87c4d4e438de01b49a53\AndroidManifest.xml:20:5-44
MERGED from [androidx.drawerlayout:drawerlayout:1.0.0] C:\Users\SHAZZ-PC\.gradle\caches\transforms-2\files-2.1\035d45a360ef87c4d4e438de01b49a53\AndroidManifest.xml:20:5-44
MERGED from [androidx.fragment:fragment:1.2.0] C:\Users\SHAZZ-PC\.gradle\caches\transforms-2\files-2.1\56955d8802e640545f3c2335438488d7\AndroidManifest.xml:20:5-22:41
MERGED from [androidx.fragment:fragment:1.2.0] C:\Users\SHAZZ-PC\.gradle\caches\transforms-2\files-2.1\56955d8802e640545f3c2335438488d7\AndroidManifest.xml:20:5-22:41
MERGED from [androidx.viewpager:viewpager:1.0.0] C:\Users\SHAZZ-PC\.gradle\caches\transforms-2\files-2.1\17e293a55f6ee2f8739cec137bf7d1b7\AndroidManifest.xml:20:5-44
MERGED from [androidx.viewpager:viewpager:1.0.0] C:\Users\SHAZZ-PC\.gradle\caches\transforms-2\files-2.1\17e293a55f6ee2f8739cec137bf7d1b7\AndroidManifest.xml:20:5-44
MERGED from [androidx.customview:customview:1.0.0] C:\Users\SHAZZ-PC\.gradle\caches\transforms-2\files-2.1\ecba5fae40afe000a20878fa04cc9402\AndroidManifest.xml:20:5-44
MERGED from [androidx.customview:customview:1.0.0] C:\Users\SHAZZ-PC\.gradle\caches\transforms-2\files-2.1\ecba5fae40afe000a20878fa04cc9402\AndroidManifest.xml:20:5-44
MERGED from [androidx.vectordrawable:vectordrawable-animated:1.1.0] C:\Users\SHAZZ-PC\.gradle\caches\transforms-2\files-2.1\99321da1d91b41bf26d82e7f4f96c39e\AndroidManifest.xml:20:5-22:41
MERGED from [androidx.vectordrawable:vectordrawable-animated:1.1.0] C:\Users\SHAZZ-PC\.gradle\caches\transforms-2\files-2.1\99321da1d91b41bf26d82e7f4f96c39e\AndroidManifest.xml:20:5-22:41
MERGED from [androidx.vectordrawable:vectordrawable:1.1.0] C:\Users\SHAZZ-PC\.gradle\caches\transforms-2\files-2.1\fc9d41ac2b7dae40b5812773ac02021c\AndroidManifest.xml:20:5-22:41
MERGED from [androidx.vectordrawable:vectordrawable:1.1.0] C:\Users\SHAZZ-PC\.gradle\caches\transforms-2\files-2.1\fc9d41ac2b7dae40b5812773ac02021c\AndroidManifest.xml:20:5-22:41
MERGED from [androidx.loader:loader:1.0.0] C:\Users\SHAZZ-PC\.gradle\caches\transforms-2\files-2.1\ba3ea9bb5facc733fae2c598a0a9ead7\AndroidManifest.xml:20:5-44
MERGED from [androidx.loader:loader:1.0.0] C:\Users\SHAZZ-PC\.gradle\caches\transforms-2\files-2.1\ba3ea9bb5facc733fae2c598a0a9ead7\AndroidManifest.xml:20:5-44
MERGED from [androidx.activity:activity:1.1.0] C:\Users\SHAZZ-PC\.gradle\caches\transforms-2\files-2.1\d64aa8e2b6aeae0304249bbb880bb801\AndroidManifest.xml:20:5-22:41
MERGED from [androidx.activity:activity:1.1.0] C:\Users\SHAZZ-PC\.gradle\caches\transforms-2\files-2.1\d64aa8e2b6aeae0304249bbb880bb801\AndroidManifest.xml:20:5-22:41
MERGED from [androidx.core:core:1.1.0] C:\Users\SHAZZ-PC\.gradle\caches\transforms-2\files-2.1\e28d971f81239b50feaca69d7ce265ac\AndroidManifest.xml:20:5-22:41
MERGED from [androidx.core:core:1.1.0] C:\Users\SHAZZ-PC\.gradle\caches\transforms-2\files-2.1\e28d971f81239b50feaca69d7ce265ac\AndroidManifest.xml:20:5-22:41
MERGED from [androidx.cursoradapter:cursoradapter:1.0.0] C:\Users\SHAZZ-PC\.gradle\caches\transforms-2\files-2.1\117fb22d4963398d35e737dd9473734a\AndroidManifest.xml:20:5-44
MERGED from [androidx.cursoradapter:cursoradapter:1.0.0] C:\Users\SHAZZ-PC\.gradle\caches\transforms-2\files-2.1\117fb22d4963398d35e737dd9473734a\AndroidManifest.xml:20:5-44
MERGED from [androidx.lifecycle:lifecycle-process:2.2.0] C:\Users\SHAZZ-PC\.gradle\caches\transforms-2\files-2.1\3482478afc4167532b8192529c1da171\AndroidManifest.xml:20:5-22:41
MERGED from [androidx.lifecycle:lifecycle-process:2.2.0] C:\Users\SHAZZ-PC\.gradle\caches\transforms-2\files-2.1\3482478afc4167532b8192529c1da171\AndroidManifest.xml:20:5-22:41
MERGED from [androidx.lifecycle:lifecycle-service:2.2.0] C:\Users\SHAZZ-PC\.gradle\caches\transforms-2\files-2.1\365773568fbd51f1de6101163e807133\AndroidManifest.xml:20:5-22:41
MERGED from [androidx.lifecycle:lifecycle-service:2.2.0] C:\Users\SHAZZ-PC\.gradle\caches\transforms-2\files-2.1\365773568fbd51f1de6101163e807133\AndroidManifest.xml:20:5-22:41
MERGED from [androidx.lifecycle:lifecycle-runtime:2.2.0] C:\Users\SHAZZ-PC\.gradle\caches\transforms-2\files-2.1\05015eec7d08fa46d753e7ab2fe3604e\AndroidManifest.xml:20:5-22:41
MERGED from [androidx.lifecycle:lifecycle-runtime:2.2.0] C:\Users\SHAZZ-PC\.gradle\caches\transforms-2\files-2.1\05015eec7d08fa46d753e7ab2fe3604e\AndroidManifest.xml:20:5-22:41
MERGED from [androidx.lifecycle:lifecycle-livedata:2.2.0] C:\Users\SHAZZ-PC\.gradle\caches\transforms-2\files-2.1\466a87c158cc54d5b5b3ed4b96929134\AndroidManifest.xml:20:5-22:41
MERGED from [androidx.lifecycle:lifecycle-livedata:2.2.0] C:\Users\SHAZZ-PC\.gradle\caches\transforms-2\files-2.1\466a87c158cc54d5b5b3ed4b96929134\AndroidManifest.xml:20:5-22:41
MERGED from [androidx.lifecycle:lifecycle-viewmodel-savedstate:1.0.0] C:\Users\SHAZZ-PC\.gradle\caches\transforms-2\files-2.1\c7272080e7ba62a31cea3b58bea3ddaf\AndroidManifest.xml:20:5-22:41
MERGED from [androidx.lifecycle:lifecycle-viewmodel-savedstate:1.0.0] C:\Users\SHAZZ-PC\.gradle\caches\transforms-2\files-2.1\c7272080e7ba62a31cea3b58bea3ddaf\AndroidManifest.xml:20:5-22:41
MERGED from [androidx.lifecycle:lifecycle-livedata-core:2.2.0] C:\Users\SHAZZ-PC\.gradle\caches\transforms-2\files-2.1\783e07400e59d29704e0924c9d138256\AndroidManifest.xml:20:5-22:41
MERGED from [androidx.lifecycle:lifecycle-livedata-core:2.2.0] C:\Users\SHAZZ-PC\.gradle\caches\transforms-2\files-2.1\783e07400e59d29704e0924c9d138256\AndroidManifest.xml:20:5-22:41
MERGED from [androidx.arch.core:core-runtime:2.1.0] C:\Users\SHAZZ-PC\.gradle\caches\transforms-2\files-2.1\a6f6e7c5e32eca7566e1711781d1795d\AndroidManifest.xml:20:5-22:41
MERGED from [androidx.arch.core:core-runtime:2.1.0] C:\Users\SHAZZ-PC\.gradle\caches\transforms-2\files-2.1\a6f6e7c5e32eca7566e1711781d1795d\AndroidManifest.xml:20:5-22:41
MERGED from [androidx.savedstate:savedstate:1.0.0] C:\Users\SHAZZ-PC\.gradle\caches\transforms-2\files-2.1\97d1a623f7e795faabf8faeb30284b35\AndroidManifest.xml:20:5-22:41
MERGED from [androidx.savedstate:savedstate:1.0.0] C:\Users\SHAZZ-PC\.gradle\caches\transforms-2\files-2.1\97d1a623f7e795faabf8faeb30284b35\AndroidManifest.xml:20:5-22:41
MERGED from [androidx.lifecycle:lifecycle-viewmodel:2.2.0] C:\Users\SHAZZ-PC\.gradle\caches\transforms-2\files-2.1\3799a4688fa1433efc33881ad658e43a\AndroidManifest.xml:20:5-22:41
MERGED from [androidx.lifecycle:lifecycle-viewmodel:2.2.0] C:\Users\SHAZZ-PC\.gradle\caches\transforms-2\files-2.1\3799a4688fa1433efc33881ad658e43a\AndroidManifest.xml:20:5-22:41
MERGED from [androidx.exifinterface:exifinterface:1.0.0] C:\Users\SHAZZ-PC\.gradle\caches\transforms-2\files-2.1\26f2ca53176a3e74e60ac67d8c6eac11\AndroidManifest.xml:20:5-44
MERGED from [androidx.exifinterface:exifinterface:1.0.0] C:\Users\SHAZZ-PC\.gradle\caches\transforms-2\files-2.1\26f2ca53176a3e74e60ac67d8c6eac11\AndroidManifest.xml:20:5-44
MERGED from [androidx.versionedparcelable:versionedparcelable:1.1.0] C:\Users\SHAZZ-PC\.gradle\caches\transforms-2\files-2.1\4869d28996df6c2caf106da4927dae8f\AndroidManifest.xml:20:5-22:41
MERGED from [androidx.versionedparcelable:versionedparcelable:1.1.0] C:\Users\SHAZZ-PC\.gradle\caches\transforms-2\files-2.1\4869d28996df6c2caf106da4927dae8f\AndroidManifest.xml:20:5-22:41
MERGED from [androidx.interpolator:interpolator:1.0.0] C:\Users\SHAZZ-PC\.gradle\caches\transforms-2\files-2.1\149edcb0f1a39db21ef9033e6412ff2d\AndroidManifest.xml:20:5-44
MERGED from [androidx.interpolator:interpolator:1.0.0] C:\Users\SHAZZ-PC\.gradle\caches\transforms-2\files-2.1\149edcb0f1a39db21ef9033e6412ff2d\AndroidManifest.xml:20:5-44
INJECTED from C:\Users\SHAZZ-PC\Desktop\Rates\app\src\main\AndroidManifest.xml
INJECTED from C:\Users\SHAZZ-PC\Desktop\Rates\app\src\main\AndroidManifest.xml
	android:targetSdkVersion
		INJECTED from C:\Users\SHAZZ-PC\Desktop\Rates\app\src\main\AndroidManifest.xml
		ADDED from C:\Users\SHAZZ-PC\Desktop\Rates\app\src\main\AndroidManifest.xml
		INJECTED from C:\Users\SHAZZ-PC\Desktop\Rates\app\src\main\AndroidManifest.xml
	android:minSdkVersion
		INJECTED from C:\Users\SHAZZ-PC\Desktop\Rates\app\src\main\AndroidManifest.xml
		ADDED from C:\Users\SHAZZ-PC\Desktop\Rates\app\src\main\AndroidManifest.xml
		INJECTED from C:\Users\SHAZZ-PC\Desktop\Rates\app\src\main\AndroidManifest.xml
provider#com.squareup.picasso.PicassoProvider
ADDED from [com.squareup.picasso:picasso:2.71828] C:\Users\SHAZZ-PC\.gradle\caches\transforms-2\files-2.1\a516092396ab68558b2f81c3baadd2e3\AndroidManifest.xml:8:9-11:40
	android:authorities
		ADDED from [com.squareup.picasso:picasso:2.71828] C:\Users\SHAZZ-PC\.gradle\caches\transforms-2\files-2.1\a516092396ab68558b2f81c3baadd2e3\AndroidManifest.xml:10:13-72
	android:exported
		ADDED from [com.squareup.picasso:picasso:2.71828] C:\Users\SHAZZ-PC\.gradle\caches\transforms-2\files-2.1\a516092396ab68558b2f81c3baadd2e3\AndroidManifest.xml:11:13-37
	android:name
		ADDED from [com.squareup.picasso:picasso:2.71828] C:\Users\SHAZZ-PC\.gradle\caches\transforms-2\files-2.1\a516092396ab68558b2f81c3baadd2e3\AndroidManifest.xml:9:13-64
provider#androidx.lifecycle.ProcessLifecycleOwnerInitializer
ADDED from [androidx.lifecycle:lifecycle-process:2.2.0] C:\Users\SHAZZ-PC\.gradle\caches\transforms-2\files-2.1\3482478afc4167532b8192529c1da171\AndroidManifest.xml:25:9-29:43
	android:authorities
		ADDED from [androidx.lifecycle:lifecycle-process:2.2.0] C:\Users\SHAZZ-PC\.gradle\caches\transforms-2\files-2.1\3482478afc4167532b8192529c1da171\AndroidManifest.xml:27:13-69
	android:multiprocess
		ADDED from [androidx.lifecycle:lifecycle-process:2.2.0] C:\Users\SHAZZ-PC\.gradle\caches\transforms-2\files-2.1\3482478afc4167532b8192529c1da171\AndroidManifest.xml:29:13-40
	android:exported
		ADDED from [androidx.lifecycle:lifecycle-process:2.2.0] C:\Users\SHAZZ-PC\.gradle\caches\transforms-2\files-2.1\3482478afc4167532b8192529c1da171\AndroidManifest.xml:28:13-37
	android:name
		ADDED from [androidx.lifecycle:lifecycle-process:2.2.0] C:\Users\SHAZZ-PC\.gradle\caches\transforms-2\files-2.1\3482478afc4167532b8192529c1da171\AndroidManifest.xml:26:13-79
